# This file uses centimeters as units for non-parametric coordinates.

v -0.000000 0.182011 0.373174
v 0.000000 0.041162 0.350782
v 0.000000 0.041162 0.279468
v 0.000000 0.115035 0.267006
v 0.000000 0.110044 0.181838
v 0.000000 0.049806 0.157697
v 0.000000 0.041162 0.126010
v 0.000000 0.040765 -0.150472
v 0.000000 0.117485 -0.174232
v 0.000000 0.121825 -0.251791
v 0.000000 0.040576 -0.281897
v 0.000000 0.060622 -0.359629
v -0.000000 0.118146 -0.387620
v -0.000000 0.208299 -0.361663
v 0.000000 0.231006 -0.220309
v -0.000000 0.335470 -0.161274
v 0.000000 0.335470 0.087201
v -0.000000 0.253057 0.143700
v -0.123667 0.328145 -0.161274
v -0.123667 0.328145 0.087201
v -0.147193 0.041162 0.126010
v -0.147193 0.040765 -0.150472
v -0.156771 0.117485 -0.174232
v -0.170029 0.245732 0.134757
v -0.149604 0.123509 -0.368731
v -0.133797 0.065985 -0.349988
v -0.142269 0.174686 0.368731
v -0.150458 0.110044 0.181838
v -0.143737 0.115035 0.267006
v -0.147193 0.040576 -0.281897
v -0.159887 0.200974 -0.352415
v -0.170029 0.223681 -0.214048
v -0.157326 0.121825 -0.251791
v -0.123161 0.041162 0.346339
v -0.130455 0.041162 0.279468
v -0.143737 0.049806 0.157697
v -0.096722 0.095194 -0.186389
v -0.096722 0.068883 -0.167273
v -0.142500 0.068883 -0.167273
v -0.142500 0.095194 -0.186389
v -0.096722 0.036361 -0.167273
v -0.142500 0.036361 -0.167273
v -0.096722 0.010050 -0.186389
v -0.142500 0.010050 -0.186389
v -0.096722 0.000000 -0.217319
v -0.142500 0.000000 -0.217319
v -0.096722 0.010050 -0.248250
v -0.142500 0.010050 -0.248250
v -0.096722 0.036361 -0.267366
v -0.142500 0.036361 -0.267366
v -0.096722 0.068883 -0.267366
v -0.142500 0.068883 -0.267366
v -0.096722 0.095194 -0.248250
v -0.142500 0.095194 -0.248250
v -0.096722 0.105244 -0.217319
v -0.142500 0.105244 -0.217319
v -0.096722 0.095194 0.249963
v -0.096722 0.068883 0.269080
v -0.142500 0.068883 0.269080
v -0.142500 0.095194 0.249963
v -0.096722 0.036361 0.269080
v -0.142500 0.036361 0.269080
v -0.096722 0.010050 0.249963
v -0.142500 0.010050 0.249963
v -0.096722 -0.000000 0.219033
v -0.142500 -0.000000 0.219033
v -0.096722 0.010050 0.188103
v -0.142500 0.010050 0.188103
v -0.096722 0.036361 0.168986
v -0.142500 0.036361 0.168986
v -0.096722 0.068883 0.168987
v -0.142500 0.068883 0.168987
v -0.096722 0.095194 0.188103
v -0.142500 0.095194 0.188103
v -0.096722 0.105244 0.219033
v -0.142500 0.105244 0.219033
v 0.123667 0.328145 0.087201
v 0.123667 0.328145 -0.161274
v 0.147193 0.041162 0.126010
v 0.170029 0.245732 0.134757
v 0.156771 0.117485 -0.174232
v 0.147193 0.040765 -0.150472
v 0.149604 0.123509 -0.368731
v 0.133797 0.065985 -0.349988
v 0.142269 0.174686 0.368731
v 0.150458 0.110044 0.181838
v 0.143737 0.115035 0.267006
v 0.147193 0.040576 -0.281897
v 0.170029 0.223681 -0.214048
v 0.159887 0.200974 -0.352415
v 0.157326 0.121825 -0.251791
v 0.130455 0.041162 0.279468
v 0.123161 0.041162 0.346339
v 0.143737 0.049806 0.157697
v 0.096722 0.095194 -0.186389
v 0.142500 0.095194 -0.186389
v 0.142500 0.068883 -0.167273
v 0.096722 0.068883 -0.167273
v 0.142500 0.036361 -0.167273
v 0.096722 0.036361 -0.167273
v 0.142500 0.010050 -0.186389
v 0.096722 0.010050 -0.186389
v 0.142500 0.000000 -0.217319
v 0.096722 0.000000 -0.217319
v 0.142500 0.010050 -0.248250
v 0.096722 0.010050 -0.248250
v 0.142500 0.036361 -0.267366
v 0.096722 0.036361 -0.267366
v 0.142500 0.068883 -0.267366
v 0.096722 0.068883 -0.267366
v 0.142500 0.095194 -0.248250
v 0.096722 0.095194 -0.248250
v 0.142500 0.105244 -0.217319
v 0.096722 0.105244 -0.217319
v 0.096722 0.095194 0.249963
v 0.142500 0.095194 0.249963
v 0.142500 0.068883 0.269080
v 0.096722 0.068883 0.269080
v 0.142500 0.036361 0.269080
v 0.096722 0.036361 0.269080
v 0.142500 0.010050 0.249963
v 0.096722 0.010050 0.249963
v 0.142500 -0.000000 0.219033
v 0.096722 -0.000000 0.219033
v 0.142500 0.010050 0.188103
v 0.096722 0.010050 0.188103
v 0.142500 0.036361 0.168986
v 0.096722 0.036361 0.168986
v 0.142500 0.068883 0.168987
v 0.096722 0.068883 0.168987
v 0.142500 0.095194 0.188103
v 0.096722 0.095194 0.188103
v 0.142500 0.105244 0.219033
v 0.096722 0.105244 0.219033
vt 0.154024 0.853683
vt 0.385344 0.845750
vt 0.356292 0.424593
vt 0.282696 0.118757
vt 0.877058 0.903105
vt 0.974976 0.903105
vt 0.974976 0.948628
vt 0.877058 0.948628
vt 0.020024 0.118757
vt 0.020024 0.424593
vt 0.342105 0.455335
vt 0.330863 0.727217
vt 0.727972 0.556772
vt 0.697436 0.454808
vt 0.385344 0.760664
vt 0.178465 0.768597
vt 0.385344 0.979100
vt 0.138125 0.968265
vt 0.862329 0.851528
vt 0.974976 0.850714
vt 0.974976 0.892755
vt 0.270355 0.546882
vt 0.423969 0.963762
vt 0.160899 0.553516
vt 0.694180 0.987061
vt 0.784674 0.988505
vt 0.784674 0.976862
vt 0.685119 0.976862
vt 0.840349 0.894393
vt 0.848380 0.983646
vt 0.840349 0.958296
vt 0.030163 0.632794
vt 0.779143 0.697910
vt 0.453514 0.766261
vt 0.956970 0.667732
vt 0.977939 0.564778
vt 0.827650 0.562540
vt 0.144883 0.455335
vt 0.058941 0.455335
vt 0.301381 0.466824
vt 0.685119 0.957177
vt 0.784674 0.957177
vt 0.784674 0.915764
vt 0.685119 0.915764
vt 0.678641 0.960735
vt 0.784674 0.960735
vt 0.678266 0.972353
vt 0.784674 0.972353
vt 0.687457 0.894645
vt 0.784674 0.894645
vt 0.784674 0.892779
vt 0.696440 0.892779
vt 0.682911 0.907402
vt 0.784674 0.907402
vt 0.687457 0.911018
vt 0.784674 0.911018
vt 0.701373 0.882762
vt 0.784674 0.882097
vt 0.643947 0.974597
vt 0.643947 0.766261
vt 0.866341 0.454557
vt 0.953851 0.488326
vt 0.988505 0.424593
vt 0.721662 0.424593
vt 0.974976 0.985340
vt 0.795258 0.118757
vt 0.988505 0.118757
vt 0.974976 0.959443
vt 0.029270 0.777084
vt 0.054424 0.814122
vt 0.029270 0.731304
vt 0.054424 0.694266
vt 0.095124 0.680119
vt 0.135825 0.694266
vt 0.736404 0.817805
vt 0.738451 0.817242
vt 0.738451 0.849763
vt 0.736381 0.849023
vt 0.740614 0.817242
vt 0.740614 0.849763
vt 0.742776 0.817242
vt 0.742776 0.849763
vt 0.744939 0.817242
vt 0.744939 0.849763
vt 0.747102 0.817242
vt 0.747102 0.849763
vt 0.749264 0.817242
vt 0.749264 0.849763
vt 0.751427 0.817242
vt 0.751427 0.849763
vt 0.753589 0.817242
vt 0.753589 0.849763
vt 0.755752 0.817242
vt 0.755752 0.849763
vt 0.757799 0.817805
vt 0.757822 0.849023
vt 0.160979 0.731304
vt 0.160979 0.777084
vt 0.135825 0.814122
vt 0.095124 0.828269
vt 0.029394 0.777074
vt 0.054549 0.814111
vt 0.029394 0.731293
vt 0.054549 0.694256
vt 0.095249 0.680108
vt 0.135949 0.694256
vt 0.736404 0.817805
vt 0.738451 0.817242
vt 0.738451 0.849763
vt 0.736381 0.849023
vt 0.740614 0.817242
vt 0.740614 0.849763
vt 0.742776 0.817242
vt 0.742776 0.849763
vt 0.744939 0.817242
vt 0.744939 0.849763
vt 0.747102 0.817242
vt 0.747102 0.849763
vt 0.749264 0.817242
vt 0.749264 0.849763
vt 0.751427 0.817242
vt 0.751427 0.849763
vt 0.753589 0.817242
vt 0.753589 0.849763
vt 0.755752 0.817242
vt 0.755752 0.849763
vt 0.757799 0.817805
vt 0.757822 0.849023
vt 0.161104 0.731293
vt 0.161103 0.777074
vt 0.135949 0.814111
vt 0.095249 0.828258
vt 0.877058 0.903105
vt 0.974976 0.903105
vt 0.974976 0.948628
vt 0.877058 0.948628
vt 0.342105 0.455335
vt 0.330863 0.727217
vt 0.727972 0.556772
vt 0.697436 0.454808
vt 0.154024 0.853683
vt 0.385344 0.845750
vt 0.385344 0.760664
vt 0.178465 0.768597
vt 0.862329 0.851528
vt 0.974976 0.850714
vt 0.974976 0.892755
vt 0.840349 0.894393
vt 0.270355 0.546882
vt 0.160899 0.553516
vt 0.030163 0.632794
vt 0.694180 0.987061
vt 0.784674 0.988505
vt 0.784674 0.976862
vt 0.685119 0.976862
vt 0.779143 0.697910
vt 0.956970 0.667732
vt 0.977939 0.564778
vt 0.827650 0.562540
vt 0.144883 0.455335
vt 0.058941 0.455335
vt 0.301381 0.466824
vt 0.953851 0.488326
vt 0.866341 0.454557
vt 0.685119 0.957177
vt 0.784674 0.957177
vt 0.784674 0.915764
vt 0.685119 0.915764
vt 0.678641 0.960735
vt 0.784674 0.960735
vt 0.678266 0.972353
vt 0.784674 0.972353
vt 0.687457 0.894645
vt 0.784674 0.894645
vt 0.784674 0.892779
vt 0.696440 0.892779
vt 0.682911 0.907402
vt 0.784674 0.907402
vt 0.687457 0.911018
vt 0.784674 0.911018
vt 0.701373 0.882762
vt 0.784674 0.882097
vt 0.736404 0.817805
vt 0.736381 0.849023
vt 0.738451 0.849763
vt 0.738451 0.817242
vt 0.740614 0.849763
vt 0.740614 0.817242
vt 0.742776 0.849763
vt 0.742776 0.817242
vt 0.744939 0.849763
vt 0.744939 0.817242
vt 0.747102 0.849763
vt 0.747102 0.817242
vt 0.749264 0.849763
vt 0.749264 0.817242
vt 0.751427 0.849763
vt 0.751427 0.817242
vt 0.753589 0.849763
vt 0.753589 0.817242
vt 0.755752 0.849763
vt 0.755752 0.817242
vt 0.757822 0.849023
vt 0.757799 0.817805
vt 0.029270 0.777084
vt 0.054424 0.814122
vt 0.029270 0.731304
vt 0.054424 0.694266
vt 0.095124 0.680119
vt 0.135825 0.694266
vt 0.160979 0.731304
vt 0.160979 0.777084
vt 0.135825 0.814122
vt 0.095124 0.828269
vt 0.736404 0.817805
vt 0.736381 0.849023
vt 0.738451 0.849763
vt 0.738451 0.817242
vt 0.740614 0.849763
vt 0.740614 0.817242
vt 0.742776 0.849763
vt 0.742776 0.817242
vt 0.744939 0.849763
vt 0.744939 0.817242
vt 0.747102 0.849763
vt 0.747102 0.817242
vt 0.749264 0.849763
vt 0.749264 0.817242
vt 0.751427 0.849763
vt 0.751427 0.817242
vt 0.753589 0.849763
vt 0.753589 0.817242
vt 0.755752 0.849763
vt 0.755752 0.817242
vt 0.757822 0.849023
vt 0.757799 0.817805
vt 0.029394 0.777074
vt 0.054549 0.814111
vt 0.029394 0.731293
vt 0.054549 0.694256
vt 0.095249 0.680108
vt 0.135949 0.694256
vt 0.161104 0.731293
vt 0.161103 0.777074
vt 0.135949 0.814111
vt 0.095249 0.828258
vt 0.848380 0.983646
vt 0.840349 0.958296
vt 0.974976 0.959443
vt 0.974976 0.985340
vt 0.356292 0.424593
vt 0.282696 0.118757
vt 0.020024 0.118757
vt 0.020024 0.424593
vt 0.988505 0.118757
vt 0.795258 0.118757
vt 0.721662 0.424593
vt 0.988505 0.424593
vt 0.385344 0.979100
vt 0.138125 0.968265
vt 0.423969 0.963762
vt 0.453514 0.766261
vt 0.643947 0.766261
vt 0.643947 0.974597
vn -0.539380 0.815690 0.209093
vn 0.000000 0.957187 0.289469
vn -0.000000 0.935164 -0.354215
vn -0.524263 0.806498 -0.273329
vn -0.993439 -0.114335 0.002625
vn -0.993439 -0.114335 0.002625
vn -0.993439 -0.114335 0.002625
vn -0.993439 -0.114335 0.002625
vn 0.000000 -0.309795 -0.950803
vn -0.000000 -0.015483 -0.999880
vn 0.000000 -0.764144 -0.645045
vn 0.000000 -0.309795 -0.950803
vn 0.000000 0.956859 0.290552
vn -0.000000 0.753208 0.657782
vn 0.000000 0.885731 0.464198
vn -0.989880 -0.114996 0.083148
vn -0.989880 -0.114996 0.083148
vn 0.000000 -0.850243 0.526391
vn 0.000000 -0.936896 -0.349607
vn -0.992206 -0.108960 -0.060454
vn -0.992206 -0.108960 -0.060454
vn -0.992206 -0.108960 -0.060454
vn -0.981551 -0.158416 0.107060
vn -0.981551 -0.158416 0.107060
vn -0.988239 -0.121789 0.092472
vn 0.000000 -0.967387 -0.253305
vn 0.000000 -0.999579 0.029031
vn 0.000000 -0.787917 -0.615782
vn 0.000000 -0.820283 0.571958
vn 0.000000 -0.834678 -0.550738
vn 0.000000 -0.718488 -0.695539
vn 0.000000 -0.858726 0.512436
vn 0.000000 -0.627778 0.778393
vn -0.000000 -0.534485 0.845178
vn 0.000000 0.587784 0.809018
vn 0.000000 0.587784 0.809018
vn 0.000000 0.587784 0.809018
vn 0.000000 0.587784 0.809018
vn 0.000000 0.000000 1.000000
vn 0.000000 0.000000 1.000000
vn 0.000000 0.000000 1.000000
vn 0.000000 0.000000 1.000000
vn 0.000000 -0.587784 0.809018
vn 0.000000 -0.587784 0.809018
vn 0.000000 -0.587784 0.809018
vn 0.000000 -0.587784 0.809018
vn 0.000000 -0.951054 0.309023
vn 0.000000 -0.951054 0.309023
vn 0.000000 -0.951054 0.309023
vn 0.000000 -0.951054 0.309023
vn 0.000000 -0.951057 -0.309014
vn 0.000000 -0.951057 -0.309014
vn 0.000000 -0.951057 -0.309014
vn 0.000000 -0.951057 -0.309014
vn 0.000000 -0.587784 -0.809018
vn 0.000000 -0.587784 -0.809018
vn 0.000000 -0.587784 -0.809018
vn 0.000000 -0.587784 -0.809018
vn 0.000000 0.000000 -1.000000
vn 0.000000 0.000000 -1.000000
vn 0.000000 0.000000 -1.000000
vn 0.000000 0.000000 -1.000000
vn 0.000000 0.587784 -0.809018
vn 0.000000 0.587784 -0.809018
vn 0.000000 0.587784 -0.809018
vn 0.000000 0.587784 -0.809018
vn 0.000000 0.951057 -0.309015
vn 0.000000 0.951057 -0.309015
vn 0.000000 0.951057 -0.309015
vn 0.000000 0.951057 -0.309015
vn 0.000000 0.951054 0.309024
vn 0.000000 0.951054 0.309024
vn 0.000000 0.951054 0.309024
vn 0.000000 0.951054 0.309024
vn -1.000000 0.000000 0.000000
vn -1.000000 0.000000 0.000000
vn -1.000000 0.000000 0.000000
vn -1.000000 0.000000 0.000000
vn -1.000000 0.000000 0.000000
vn -1.000000 0.000000 0.000000
vn -1.000000 0.000000 0.000000
vn -1.000000 0.000000 0.000000
vn -1.000000 0.000000 0.000000
vn -1.000000 0.000000 0.000000
vn -1.000000 0.000000 0.000000
vn -1.000000 0.000000 0.000000
vn -1.000000 -0.000000 0.000000
vn -1.000000 -0.000000 0.000000
vn -1.000000 -0.000000 0.000000
vn -1.000000 0.000000 0.000000
vn -1.000000 0.000000 0.000000
vn -1.000000 0.000000 0.000000
vn -1.000000 0.000000 0.000000
vn -1.000000 0.000000 0.000000
vn -1.000000 0.000000 0.000000
vn -1.000000 0.000000 0.000000
vn -1.000000 0.000000 0.000000
vn -1.000000 0.000000 0.000000
vn 0.000000 0.587804 0.809003
vn 0.000000 0.587804 0.809003
vn 0.000000 0.587804 0.809003
vn 0.000000 0.587804 0.809003
vn 0.000000 0.000000 1.000000
vn 0.000000 0.000000 1.000000
vn 0.000000 0.000000 1.000000
vn 0.000000 0.000000 1.000000
vn 0.000000 -0.587804 0.809003
vn 0.000000 -0.587804 0.809003
vn 0.000000 -0.587804 0.809003
vn 0.000000 -0.587804 0.809003
vn 0.000000 -0.951054 0.309023
vn 0.000000 -0.951054 0.309023
vn 0.000000 -0.951054 0.309023
vn 0.000000 -0.951054 0.309023
vn 0.000000 -0.951054 -0.309023
vn 0.000000 -0.951054 -0.309023
vn 0.000000 -0.951054 -0.309023
vn 0.000000 -0.951054 -0.309023
vn 0.000000 -0.587804 -0.809003
vn 0.000000 -0.587804 -0.809003
vn 0.000000 -0.587804 -0.809003
vn 0.000000 -0.587804 -0.809003
vn 0.000000 0.000031 -1.000000
vn 0.000000 0.000031 -1.000000
vn 0.000000 0.000031 -1.000000
vn 0.000000 0.000031 -1.000000
vn 0.000000 0.587784 -0.809018
vn 0.000000 0.587784 -0.809018
vn 0.000000 0.587784 -0.809018
vn 0.000000 0.587784 -0.809018
vn 0.000000 0.951054 -0.309024
vn 0.000000 0.951054 -0.309024
vn 0.000000 0.951054 -0.309024
vn 0.000000 0.951054 -0.309024
vn 0.000000 0.951054 0.309024
vn 0.000000 0.951054 0.309024
vn 0.000000 0.951054 0.309024
vn 0.000000 0.951054 0.309024
vn -1.000000 0.000000 0.000000
vn -1.000000 0.000000 0.000000
vn -1.000000 0.000000 0.000000
vn -1.000000 0.000000 0.000000
vn -1.000000 0.000000 0.000000
vn -1.000000 0.000000 0.000000
vn -1.000000 0.000000 0.000000
vn -1.000000 0.000000 0.000000
vn -1.000000 0.000000 0.000000
vn -1.000000 0.000000 0.000000
vn -1.000000 0.000000 0.000000
vn -1.000000 0.000000 0.000000
vn -1.000000 -0.000000 0.000000
vn -1.000000 -0.000000 0.000000
vn -1.000000 -0.000000 0.000000
vn -1.000000 -0.000000 0.000000
vn -1.000000 -0.000000 0.000000
vn -1.000000 -0.000000 0.000000
vn -1.000000 0.000000 0.000000
vn -1.000000 0.000000 0.000000
vn -1.000000 0.000000 0.000000
vn -1.000000 0.000000 0.000000
vn -1.000000 0.000000 0.000000
vn -1.000000 0.000000 0.000000
vn -0.000000 0.856276 -0.516519
vn -0.000000 0.840436 -0.541911
vn 0.539380 0.815690 0.209093
vn 0.524263 0.806498 -0.273329
vn 0.993439 -0.114335 0.002625
vn 0.993439 -0.114335 0.002625
vn 0.993439 -0.114335 0.002625
vn 0.993439 -0.114335 0.002625
vn 0.000000 -0.309795 -0.950803
vn 0.000000 -0.309795 -0.950803
vn 0.000000 0.956859 0.290552
vn 0.989880 -0.114996 0.083148
vn 0.989880 -0.114996 0.083148
vn 0.000000 -0.936896 -0.349607
vn 0.992206 -0.108960 -0.060454
vn 0.992206 -0.108960 -0.060454
vn 0.992206 -0.108960 -0.060454
vn 0.981551 -0.158416 0.107060
vn 0.981551 -0.158416 0.107060
vn 0.988239 -0.121789 0.092472
vn 0.000000 0.587784 0.809018
vn 0.000000 0.587784 0.809018
vn 0.000000 0.587784 0.809018
vn 0.000000 0.587784 0.809018
vn 0.000000 0.000000 1.000000
vn 0.000000 0.000000 1.000000
vn 0.000000 0.000000 1.000000
vn 0.000000 0.000000 1.000000
vn 0.000000 -0.587784 0.809018
vn 0.000000 -0.587784 0.809018
vn 0.000000 -0.587784 0.809018
vn 0.000000 -0.587784 0.809018
vn 0.000000 -0.951054 0.309023
vn 0.000000 -0.951054 0.309023
vn 0.000000 -0.951054 0.309023
vn 0.000000 -0.951054 0.309023
vn 0.000000 -0.951057 -0.309014
vn 0.000000 -0.951057 -0.309014
vn 0.000000 -0.951057 -0.309014
vn 0.000000 -0.951057 -0.309014
vn 0.000000 -0.587784 -0.809018
vn 0.000000 -0.587784 -0.809018
vn 0.000000 -0.587784 -0.809018
vn 0.000000 -0.587784 -0.809018
vn 0.000000 0.000000 -1.000000
vn 0.000000 0.000000 -1.000000
vn 0.000000 0.000000 -1.000000
vn 0.000000 0.000000 -1.000000
vn 0.000000 0.587784 -0.809018
vn 0.000000 0.587784 -0.809018
vn 0.000000 0.587784 -0.809018
vn 0.000000 0.587784 -0.809018
vn 0.000000 0.951057 -0.309015
vn 0.000000 0.951057 -0.309015
vn 0.000000 0.951057 -0.309015
vn 0.000000 0.951057 -0.309015
vn 0.000000 0.951054 0.309024
vn 0.000000 0.951054 0.309024
vn 0.000000 0.951054 0.309024
vn 0.000000 0.951054 0.309024
vn 1.000000 0.000000 0.000000
vn 1.000000 0.000000 0.000000
vn 1.000000 0.000000 0.000000
vn 1.000000 0.000000 0.000000
vn 1.000000 0.000000 0.000000
vn 1.000000 0.000000 0.000000
vn 1.000000 0.000000 0.000000
vn 1.000000 0.000000 0.000000
vn 1.000000 0.000000 0.000000
vn 1.000000 0.000000 0.000000
vn 1.000000 0.000000 0.000000
vn 1.000000 0.000000 0.000000
vn 1.000000 0.000000 0.000000
vn 1.000000 0.000000 0.000000
vn 1.000000 0.000000 0.000000
vn 1.000000 0.000000 0.000000
vn 1.000000 0.000000 0.000000
vn 1.000000 0.000000 0.000000
vn 1.000000 0.000000 0.000000
vn 1.000000 0.000000 0.000000
vn 1.000000 0.000000 0.000000
vn 1.000000 0.000000 0.000000
vn 1.000000 0.000000 0.000000
vn 1.000000 0.000000 0.000000
vn 0.000000 0.587804 0.809003
vn 0.000000 0.587804 0.809003
vn 0.000000 0.587804 0.809003
vn 0.000000 0.587804 0.809003
vn 0.000000 0.000000 1.000000
vn 0.000000 0.000000 1.000000
vn 0.000000 0.000000 1.000000
vn 0.000000 0.000000 1.000000
vn 0.000000 -0.587804 0.809003
vn 0.000000 -0.587804 0.809003
vn 0.000000 -0.587804 0.809003
vn 0.000000 -0.587804 0.809003
vn 0.000000 -0.951054 0.309023
vn 0.000000 -0.951054 0.309023
vn 0.000000 -0.951054 0.309023
vn 0.000000 -0.951054 0.309023
vn 0.000000 -0.951054 -0.309023
vn 0.000000 -0.951054 -0.309023
vn 0.000000 -0.951054 -0.309023
vn 0.000000 -0.951054 -0.309023
vn 0.000000 -0.587804 -0.809003
vn 0.000000 -0.587804 -0.809003
vn 0.000000 -0.587804 -0.809003
vn 0.000000 -0.587804 -0.809003
vn 0.000000 0.000031 -1.000000
vn 0.000000 0.000031 -1.000000
vn 0.000000 0.000031 -1.000000
vn 0.000000 0.000031 -1.000000
vn 0.000000 0.587784 -0.809018
vn 0.000000 0.587784 -0.809018
vn 0.000000 0.587784 -0.809018
vn 0.000000 0.587784 -0.809018
vn 0.000000 0.951054 -0.309024
vn 0.000000 0.951054 -0.309024
vn 0.000000 0.951054 -0.309024
vn 0.000000 0.951054 -0.309024
vn 0.000000 0.951054 0.309024
vn 0.000000 0.951054 0.309024
vn 0.000000 0.951054 0.309024
vn 0.000000 0.951054 0.309024
vn 1.000000 0.000000 0.000000
vn 1.000000 0.000000 0.000000
vn 1.000000 0.000000 0.000000
vn 1.000000 0.000000 0.000000
vn 1.000000 0.000000 0.000000
vn 1.000000 0.000000 0.000000
vn 1.000000 0.000000 0.000000
vn 1.000000 0.000000 0.000000
vn 1.000000 0.000000 0.000000
vn 1.000000 0.000000 0.000000
vn 1.000000 0.000000 0.000000
vn 1.000000 0.000000 0.000000
vn 1.000000 0.000000 0.000000
vn 1.000000 0.000000 0.000000
vn 1.000000 0.000000 0.000000
vn 1.000000 0.000000 0.000000
vn 1.000000 0.000000 0.000000
vn 1.000000 0.000000 0.000000
vn 1.000000 0.000000 0.000000
vn 1.000000 0.000000 0.000000
vn 1.000000 0.000000 0.000000
vn 1.000000 0.000000 0.000000
vn 1.000000 0.000000 0.000000
vn 1.000000 0.000000 0.000000
f 20/5/1 17/6/2 16/7/3 19/8/4
f 21/11/5 24/12/6 23/13/7 22/14/8
f 25/1/9 13/2/10 12/15/11 26/16/12
f 27/19/13 1/20/14 18/21/15 24/29/6
f 28/22/16 29/24/17 27/32/13 24/12/6
f 26/25/12 12/26/11 11/27/18 30/28/19
f 32/33/20 31/35/21 25/36/9 33/37/22
f 29/24/17 35/38/23 34/39/24 27/32/13
f 21/11/5 36/40/25 28/22/16 24/12/6
f 25/36/9 26/62/12 30/61/19 33/37/22
f 22/41/8 8/42/26 7/43/27 21/44/5
f 23/45/7 9/46/28 8/42/26 22/41/8
f 33/47/22 10/48/29 9/46/28 23/45/7
f 29/49/17 4/50/30 3/51/31 35/52/23
f 28/53/16 5/54/32 4/50/30 29/49/17
f 36/55/25 6/56/33 5/54/32 28/53/16
f 33/47/22 30/28/19 11/27/18 10/48/29
f 36/55/25 21/44/5 7/43/27 6/56/33
f 34/57/24 35/52/23 3/51/31 2/58/34
f 37/75/35 40/78/36 39/77/37 38/76/38
f 38/76/39 39/77/40 42/80/41 41/79/42
f 41/79/43 42/80/44 44/82/45 43/81/46
f 43/81/47 44/82/48 46/84/49 45/83/50
f 45/83/51 46/84/52 48/86/53 47/85/54
f 47/85/55 48/86/56 50/88/57 49/87/58
f 49/87/59 50/88/60 52/90/61 51/89/62
f 51/89/63 52/90/64 54/92/65 53/91/66
f 53/91/67 54/92/68 56/94/69 55/93/70
f 55/93/71 56/94/72 40/96/73 37/95/74
f 39/69/75 40/70/76 42/71/77
f 42/71/78 40/70/79 44/72/80
f 44/72/81 40/70/82 46/73/83
f 46/73/84 40/70/85 48/74/86
f 48/74/87 40/70/88 50/97/89
f 50/97/90 40/70/91 52/98/92
f 52/98/93 40/70/94 54/99/95
f 54/99/96 40/70/97 56/100/98
f 57/107/99 60/110/100 59/109/101 58/108/102
f 58/108/103 59/109/104 62/112/105 61/111/106
f 61/111/107 62/112/108 64/114/109 63/113/110
f 63/113/111 64/114/112 66/116/113 65/115/114
f 65/115/115 66/116/116 68/118/117 67/117/118
f 67/117/119 68/118/120 70/120/121 69/119/122
f 69/119/123 70/120/124 72/122/125 71/121/126
f 71/121/127 72/122/128 74/124/129 73/123/130
f 73/123/131 74/124/132 76/126/133 75/125/134
f 75/125/135 76/126/136 60/128/137 57/127/138
f 59/101/139 60/102/140 62/103/141
f 62/103/142 60/102/143 64/104/144
f 64/104/145 60/102/146 66/105/147
f 66/105/148 60/102/149 68/106/150
f 68/106/151 60/102/152 70/129/153
f 70/129/154 60/102/155 72/130/156
f 72/130/157 60/102/158 74/131/159
f 74/131/160 60/102/161 76/132/162
f 31/30/21 32/31/20 15/68/163 14/65/164
f 20/3/1 24/4/6 18/9/15 17/10/2
f 15/67/163 32/66/20 19/64/4 16/63/3
f 33/37/22 23/13/7 24/12/6 32/33/20
f 19/64/4 32/66/20 24/4/6 20/3/1
f 14/17/164 13/2/10 25/1/9 31/18/21
f 27/23/13 34/34/24 2/60/34 1/59/14
f 77/133/165 78/136/166 16/135/3 17/134/2
f 79/137/167 82/140/168 81/139/169 80/138/170
f 83/141/171 84/144/172 12/143/11 13/142/10
f 85/145/173 80/148/170 18/147/15 1/146/14
f 86/149/174 80/138/170 85/151/173 87/150/175
f 84/152/172 88/155/176 11/154/18 12/153/11
f 89/156/177 91/159/178 83/158/171 90/157/179
f 87/150/175 85/151/173 93/161/180 92/160/181
f 79/137/167 80/138/170 86/149/174 94/162/182
f 83/158/171 91/159/178 88/164/176 84/163/172
f 82/165/168 79/168/167 7/167/27 8/166/26
f 81/169/169 82/165/168 8/166/26 9/170/28
f 91/171/178 81/169/169 9/170/28 10/172/29
f 87/173/175 92/176/181 3/175/31 4/174/30
f 86/177/174 87/173/175 4/174/30 5/178/32
f 94/179/182 86/177/174 5/178/32 6/180/33
f 91/171/178 10/172/29 11/154/18 88/155/176
f 94/179/182 6/180/33 7/167/27 79/168/167
f 93/181/180 2/182/34 3/175/31 92/176/181
f 95/183/183 98/186/184 97/185/185 96/184/186
f 98/186/187 100/188/188 99/187/189 97/185/190
f 100/188/191 102/190/192 101/189/193 99/187/194
f 102/190/195 104/192/196 103/191/197 101/189/198
f 104/192/199 106/194/200 105/193/201 103/191/202
f 106/194/203 108/196/204 107/195/205 105/193/206
f 108/196/207 110/198/208 109/197/209 107/195/210
f 110/198/211 112/200/212 111/199/213 109/197/214
f 112/200/215 114/202/216 113/201/217 111/199/218
f 114/202/219 95/204/220 96/203/221 113/201/222
f 97/205/223 99/207/224 96/206/225
f 99/207/226 101/208/227 96/206/228
f 101/208/229 103/209/230 96/206/231
f 103/209/232 105/210/233 96/206/234
f 105/210/235 107/211/236 96/206/237
f 107/211/238 109/212/239 96/206/240
f 109/212/241 111/213/242 96/206/243
f 111/213/244 113/214/245 96/206/246
f 115/215/247 118/218/248 117/217/249 116/216/250
f 118/218/251 120/220/252 119/219/253 117/217/254
f 120/220/255 122/222/256 121/221/257 119/219/258
f 122/222/259 124/224/260 123/223/261 121/221/262
f 124/224/263 126/226/264 125/225/265 123/223/266
f 126/226/267 128/228/268 127/227/269 125/225/270
f 128/228/271 130/230/272 129/229/273 127/227/274
f 130/230/275 132/232/276 131/231/277 129/229/278
f 132/232/279 134/234/280 133/233/281 131/231/282
f 134/234/283 115/236/284 116/235/285 133/233/286
f 117/237/287 119/239/288 116/238/289
f 119/239/290 121/240/291 116/238/292
f 121/240/293 123/241/294 116/238/295
f 123/241/296 125/242/297 116/238/298
f 125/242/299 127/243/300 116/238/301
f 127/243/302 129/244/303 116/238/304
f 129/244/305 131/245/306 116/238/307
f 131/245/308 133/246/309 116/238/310
f 90/247/179 14/250/164 15/249/163 89/248/177
f 77/251/165 17/254/2 18/253/15 80/252/170
f 15/255/163 16/258/3 78/257/166 89/256/177
f 91/159/178 89/156/177 80/138/170 81/139/169
f 78/257/166 77/251/165 80/252/170 89/256/177
f 14/259/164 90/260/179 83/141/171 13/142/10
f 85/261/173 1/264/14 2/263/34 93/262/180
